[
  {"url": "https://dpcomfort.com.ua/assets/gallery/1.jpg"},
  {"url": "https://dpcomfort.com.ua/assets/gallery/2.jpg"},
  {"url": "https://dpcomfort.com.ua/assets/gallery/3.jpg"},
  {"url": "https://dpcomfort.com.ua/assets/gallery/4.jpg"},
  {"url": "https://dpcomfort.com.ua/assets/gallery/5.jpg"},
  {"url": "https://dpcomfort.com.ua/assets/gallery/6.jpg"},
  {"url": "https://dpcomfort.com.ua/assets/gallery/7.jpg"},
  {"url": "https://dpcomfort.com.ua/assets/gallery/8.jpg"},
  {"url": "https://dpcomfort.com.ua/assets/gallery/9.jpg"},
  {"url": "https://dpcomfort.com.ua/assets/gallery/10.jpg"},
  {"url": "https://dpcomfort.com.ua/assets/gallery/11.jpg"},
  {"url": "https://dpcomfort.com.ua/assets/gallery/12.jpg"}
]